{
  "results": [
    {
      "siren": "982770919",
      "nom_complet": "RENAULT",
      "nom_raison_sociale": "RENAULT",
      "sigle": null,
      "nombre_etablissements": 2,
      "nombre_etablissements_ouverts": 2,
      "siege": {
        "activite_principale": "70.10Z",
        "activite_principale_naf25": "70.10Y",
        "activite_principale_registre_metier": null,
        "annee_tranche_effectif_salarie": null,
        "adresse": "4 RUE DU BAS DE LA VILLE 76450 VITTEFLEUR",
        "caractere_employeur": "N",
        "cedex": null,
        "code_pays_etranger": null,
        "code_postal": "76450",
        "commune": "76748",
        "complement_adresse": null,
        "coordonnees": "49.819770643,0.6328443843",
        "date_creation": "2023-12-21",
        "date_debut_activite": "2023-12-21",
        "date_fermeture": null,
        "date_mise_a_jour": null,
        "date_mise_a_jour_insee": "2025-12-06T00:17:07",
        "departement": "76",
        "distribution_speciale": null,
        "epci": "200069839",
        "est_siege": true,
        "etat_administratif": "A",
        "geo_adresse": null,
        "geo_id": null,
        "indice_repetition": null,
        "latitude": "49.819770643",
        "libelle_cedex": null,
        "libelle_commune": "VITTEFLEUR",
        "libelle_commune_etranger": null,
        "libelle_pays_etranger": null,
        "libelle_voie": "DU BAS DE LA VILLE",
        "liste_enseignes": null,
        "liste_finess": null,
        "liste_id_bio": [59635],
        "liste_idcc": null,
        "liste_id_organisme_formation": null,
        "liste_rge": null,
        "liste_uai": null,
        "longitude": "0.6328443843",
        "nom_commercial": null,
        "numero_voie": "4",
        "dernier_numero_voie": null,
        "region": "28",
        "siret": "98277091900016",
        "statut_diffusion_etablissement": "O",
        "tranche_effectif_salarie": "NN",
        "type_voie": "RUE"
      },
      "activite_principale": "01.13Z",
      "activite_principale_naf25": "01.13Y",
      "categorie_entreprise": null,
      "caractere_employeur": null,
      "annee_categorie_entreprise": null,
      "date_creation": "2023-12-21",
      "date_fermeture": null,
      "date_mise_a_jour": "2026-05-30T12:59:32",
      "date_mise_a_jour_insee": "2025-12-06T11:15:31",
      "date_mise_a_jour_rne": "2024-05-19T17:01:20",
      "dirigeants": [
        {
          "nom": "RENAULT (LECOSSOIS)",
          "prenoms": "FANNY NATHALIE CHRISTINE",
          "annee_de_naissance": "1991",
          "date_de_naissance": "1991-09",
          "qualite": "Gérant",
          "nationalite": null,
          "type_dirigeant": "personne physique"
        },
        {
          "nom": "RENAULT",
          "prenoms": "WILLIAM JOHN RÉMI",
          "annee_de_naissance": "1991",
          "date_de_naissance": "1991-01",
          "qualite": "Gérant",
          "nationalite": null,
          "type_dirigeant": "personne physique"
        }
      ],
      "etat_administratif": "A",
      "nature_juridique": "5499",
      "section_activite_principale": "A",
      "tranche_effectif_salarie": "NN",
      "annee_tranche_effectif_salarie": null,
      "statut_diffusion": "O",
      "matching_etablissements": [
        {
          "activite_principale": "70.10Z",
          "activite_principale_naf25": "70.10Y",
          "ancien_siege": false,
          "annee_tranche_effectif_salarie": null,
          "adresse": "4 RUE DU BAS DE LA VILLE 76450 VITTEFLEUR",
          "caractere_employeur": "N",
          "code_postal": "76450",
          "commune": "76748",
          "date_creation": "2023-12-21",
          "date_debut_activite": "2023-12-21",
          "date_fermeture": null,
          "epci": "200069839",
          "est_siege": true,
          "etat_administratif": "A",
          "geo_id": null,
          "latitude": "49.819770643",
          "libelle_commune": "VITTEFLEUR",
          "liste_enseignes": null,
          "liste_finess": null,
          "liste_id_bio": [59635],
          "liste_idcc": null,
          "liste_id_organisme_formation": null,
          "liste_rge": null,
          "liste_uai": null,
          "longitude": "0.6328443843",
          "nom_commercial": null,
          "region": "28",
          "siret": "98277091900016",
          "statut_diffusion_etablissement": "O",
          "tranche_effectif_salarie": "NN"
        },
        {
          "activite_principale": "01.13Z",
          "activite_principale_naf25": "01.13Y",
          "ancien_siege": false,
          "annee_tranche_effectif_salarie": null,
          "adresse": "5 LE HAMEL 76450 VITTEFLEUR",
          "caractere_employeur": "N",
          "code_postal": "76450",
          "commune": "76748",
          "date_creation": "2024-01-01",
          "date_debut_activite": "2024-01-01",
          "date_fermeture": null,
          "epci": "200069839",
          "est_siege": false,
          "etat_administratif": "A",
          "geo_id": null,
          "latitude": "49.806682306",
          "libelle_commune": "VITTEFLEUR",
          "liste_enseignes": null,
          "liste_finess": null,
          "liste_id_bio": null,
          "liste_idcc": ["7024"],
          "liste_id_organisme_formation": null,
          "liste_rge": null,
          "liste_uai": null,
          "longitude": "0.6361578146",
          "nom_commercial": "LES JARDINS DE L'HERMITINE",
          "region": "28",
          "siret": "98277091900024",
          "statut_diffusion_etablissement": "O",
          "tranche_effectif_salarie": "NN"
        }
      ],
      "finances": null,
      "complements": {
        "collectivite_territoriale": null,
        "convention_collective_renseignee": true,
        "liste_idcc": ["7024"],
        "liste_finess_juridique": null,
        "egapro_renseignee": false,
        "est_achats_responsables": false,
        "est_alim_confiance": false,
        "est_association": false,
        "est_avocat": false,
        "est_bio": true,
        "est_entrepreneur_individuel": false,
        "est_entrepreneur_spectacle": false,
        "est_ess": false,
        "est_finess": false,
        "est_organisme_formation": false,
        "est_qualiopi": false,
        "liste_id_organisme_formation": null,
        "est_rge": false,
        "est_siae": false,
        "est_societe_mission": false,
        "est_uai": false,
        "est_patrimoine_vivant": false,
        "bilan_ges_renseigne": false,
        "identifiant_association": null,
        "statut_entrepreneur_spectacle": null,
        "type_siae": null,
        "a_aide_minimis": false,
        "a_aide_ademe": false,
        "est_administration": false,
        "est_service_public": false,
        "est_l100_3": false
      }
    },
    {
      "siren": "390857399",
      "nom_complet": "RENAULT",
      "nom_raison_sociale": "RENAULT",
      "sigle": null,
      "nombre_etablissements": 1,
      "nombre_etablissements_ouverts": 1,
      "siege": {
        "activite_principale": "43.32B",
        "activite_principale_naf25": "43.32H",
        "activite_principale_registre_metier": "4332BB",
        "annee_tranche_effectif_salarie": null,
        "adresse": "RN 138 MALOUVE 27300 BERNAY",
        "caractere_employeur": "O",
        "cedex": null,
        "code_pays_etranger": null,
        "code_postal": "27300",
        "commune": "27056",
        "complement_adresse": "RN 138",
        "coordonnees": "49.068039756,0.585962756",
        "date_creation": "1993-05-01",
        "date_debut_activite": "2008-01-01",
        "date_fermeture": null,
        "date_mise_a_jour": null,
        "date_mise_a_jour_insee": "2025-12-05T15:45:00",
        "departement": "27",
        "distribution_speciale": null,
        "epci": "200066413",
        "est_siege": true,
        "etat_administratif": "A",
        "geo_adresse": null,
        "geo_id": null,
        "indice_repetition": null,
        "latitude": "49.068039756",
        "libelle_cedex": null,
        "libelle_commune": "BERNAY",
        "libelle_commune_etranger": null,
        "libelle_pays_etranger": null,
        "libelle_voie": "MALOUVE",
        "liste_enseignes": null,
        "liste_finess": null,
        "liste_id_bio": null,
        "liste_idcc": null,
        "liste_id_organisme_formation": null,
        "liste_rge": null,
        "liste_uai": null,
        "longitude": "0.585962756",
        "nom_commercial": null,
        "numero_voie": null,
        "dernier_numero_voie": null,
        "region": "28",
        "siret": "39085739900013",
        "statut_diffusion_etablissement": "O",
        "tranche_effectif_salarie": "NN",
        "type_voie": null
      },
      "activite_principale": "43.32B",
      "activite_principale_naf25": "43.32H",
      "categorie_entreprise": "PME",
      "caractere_employeur": null,
      "annee_categorie_entreprise": "2023",
      "date_creation": "1993-05-01",
      "date_fermeture": null,
      "date_mise_a_jour": "2026-05-30T10:36:15",
      "date_mise_a_jour_insee": "2025-12-06T08:25:58",
      "date_mise_a_jour_rne": "2024-05-19T17:01:20",
      "dirigeants": [
        {
          "nom": "RENAULT (RENAULT)",
          "prenoms": "LOUIS",
          "annee_de_naissance": "1950",
          "date_de_naissance": "1950-01",
          "qualite": "Président de SAS",
          "nationalite": null,
          "type_dirigeant": "personne physique"
        }
      ],
      "etat_administratif": "A",
      "nature_juridique": "5710",
      "section_activite_principale": "F",
      "tranche_effectif_salarie": "NN",
      "annee_tranche_effectif_salarie": null,
      "statut_diffusion": "O",
      "matching_etablissements": [
        {
          "activite_principale": "43.32B",
          "activite_principale_naf25": "43.32H",
          "ancien_siege": false,
          "annee_tranche_effectif_salarie": null,
          "adresse": "RN 138 MALOUVE 27300 BERNAY",
          "caractere_employeur": "O",
          "code_postal": "27300",
          "commune": "27056",
          "date_creation": "1993-05-01",
          "date_debut_activite": "2008-01-01",
          "date_fermeture": null,
          "epci": "200066413",
          "est_siege": true,
          "etat_administratif": "A",
          "geo_id": null,
          "latitude": "49.068039756",
          "libelle_commune": "BERNAY",
          "liste_enseignes": null,
          "liste_finess": null,
          "liste_id_bio": null,
          "liste_idcc": null,
          "liste_id_organisme_formation": null,
          "liste_rge": null,
          "liste_uai": null,
          "longitude": "0.585962756",
          "nom_commercial": null,
          "region": "28",
          "siret": "39085739900013",
          "statut_diffusion_etablissement": "O",
          "tranche_effectif_salarie": "NN"
        }
      ],
      "finances": { "2024": { "ca": 0, "resultat_net": 3531 } },
      "complements": {
        "collectivite_territoriale": null,
        "convention_collective_renseignee": false,
        "liste_idcc": null,
        "liste_finess_juridique": null,
        "egapro_renseignee": false,
        "est_achats_responsables": false,
        "est_alim_confiance": false,
        "est_association": false,
        "est_avocat": false,
        "est_bio": false,
        "est_entrepreneur_individuel": false,
        "est_entrepreneur_spectacle": false,
        "est_ess": false,
        "est_finess": false,
        "est_organisme_formation": false,
        "est_qualiopi": false,
        "liste_id_organisme_formation": null,
        "est_rge": false,
        "est_siae": false,
        "est_societe_mission": false,
        "est_uai": false,
        "est_patrimoine_vivant": false,
        "bilan_ges_renseigne": false,
        "identifiant_association": null,
        "statut_entrepreneur_spectacle": null,
        "type_siae": null,
        "a_aide_minimis": false,
        "a_aide_ademe": false,
        "est_administration": false,
        "est_service_public": false,
        "est_l100_3": false
      }
    },
    {
      "siren": "100723378",
      "nom_complet": "RENAULT",
      "nom_raison_sociale": "RENAULT",
      "sigle": null,
      "nombre_etablissements": 1,
      "nombre_etablissements_ouverts": 1,
      "siege": {
        "activite_principale": "68.20B",
        "activite_principale_naf25": "68.20H",
        "activite_principale_registre_metier": null,
        "annee_tranche_effectif_salarie": null,
        "adresse": "RIVE NEUVE 300 BOULEVARD GENERAL BROSSET 83200 TOULON",
        "caractere_employeur": "N",
        "cedex": null,
        "code_pays_etranger": null,
        "code_postal": "83200",
        "commune": "83137",
        "complement_adresse": "RIVE NEUVE",
        "coordonnees": "43.1288069695227,5.90341839495401",
        "date_creation": "2026-01-09",
        "date_debut_activite": "2026-01-09",
        "date_fermeture": null,
        "date_mise_a_jour": null,
        "date_mise_a_jour_insee": "2026-02-06T15:26:36",
        "departement": "83",
        "distribution_speciale": null,
        "epci": "248300543",
        "est_siege": true,
        "etat_administratif": "A",
        "geo_adresse": null,
        "geo_id": null,
        "indice_repetition": null,
        "latitude": "43.1288069695227",
        "libelle_cedex": null,
        "libelle_commune": "TOULON",
        "libelle_commune_etranger": null,
        "libelle_pays_etranger": null,
        "libelle_voie": "GENERAL BROSSET",
        "liste_enseignes": null,
        "liste_finess": null,
        "liste_id_bio": null,
        "liste_idcc": null,
        "liste_id_organisme_formation": null,
        "liste_rge": null,
        "liste_uai": null,
        "longitude": "5.90341839495401",
        "nom_commercial": null,
        "numero_voie": "300",
        "dernier_numero_voie": null,
        "region": "93",
        "siret": "10072337800012",
        "statut_diffusion_etablissement": "O",
        "tranche_effectif_salarie": "NN",
        "type_voie": "BOULEVARD"
      },
      "activite_principale": "68.20B",
      "activite_principale_naf25": "68.20H",
      "categorie_entreprise": null,
      "caractere_employeur": null,
      "annee_categorie_entreprise": null,
      "date_creation": "2026-01-09",
      "date_fermeture": null,
      "date_mise_a_jour": "2026-05-30T10:02:41",
      "date_mise_a_jour_insee": "2026-02-06T15:26:36",
      "date_mise_a_jour_rne": "2024-05-19T17:01:20",
      "dirigeants": [
        {
          "nom": "RENAULT",
          "prenoms": "BAPTISTE BRIAN",
          "annee_de_naissance": "1992",
          "date_de_naissance": "1992-10",
          "qualite": "Gérant et associé indéfiniment responsable",
          "nationalite": null,
          "type_dirigeant": "personne physique"
        },
        {
          "nom": "RENAULT",
          "prenoms": "LUCAS",
          "annee_de_naissance": "1990",
          "date_de_naissance": "1990-01",
          "qualite": "Gérant et associé indéfiniment responsable",
          "nationalite": null,
          "type_dirigeant": "personne physique"
        },
        {
          "nom": "RENAULT",
          "prenoms": "PIERRE BRICE",
          "annee_de_naissance": "1998",
          "date_de_naissance": "1998-01",
          "qualite": "Gérant et associé indéfiniment responsable",
          "nationalite": null,
          "type_dirigeant": "personne physique"
        }
      ],
      "etat_administratif": "A",
      "nature_juridique": "6599",
      "section_activite_principale": "L",
      "tranche_effectif_salarie": "NN",
      "annee_tranche_effectif_salarie": null,
      "statut_diffusion": "O",
      "matching_etablissements": [
        {
          "activite_principale": "68.20B",
          "activite_principale_naf25": "68.20H",
          "ancien_siege": false,
          "annee_tranche_effectif_salarie": null,
          "adresse": "RIVE NEUVE 300 BOULEVARD GENERAL BROSSET 83200 TOULON",
          "caractere_employeur": "N",
          "code_postal": "83200",
          "commune": "83137",
          "date_creation": "2026-01-09",
          "date_debut_activite": "2026-01-09",
          "date_fermeture": null,
          "epci": "248300543",
          "est_siege": true,
          "etat_administratif": "A",
          "geo_id": null,
          "latitude": "43.1288069695227",
          "libelle_commune": "TOULON",
          "liste_enseignes": null,
          "liste_finess": null,
          "liste_id_bio": null,
          "liste_idcc": null,
          "liste_id_organisme_formation": null,
          "liste_rge": null,
          "liste_uai": null,
          "longitude": "5.90341839495401",
          "nom_commercial": null,
          "region": "93",
          "siret": "10072337800012",
          "statut_diffusion_etablissement": "O",
          "tranche_effectif_salarie": "NN"
        }
      ],
      "finances": null,
      "complements": {
        "collectivite_territoriale": null,
        "convention_collective_renseignee": false,
        "liste_idcc": null,
        "liste_finess_juridique": null,
        "egapro_renseignee": false,
        "est_achats_responsables": false,
        "est_alim_confiance": false,
        "est_association": false,
        "est_avocat": false,
        "est_bio": false,
        "est_entrepreneur_individuel": false,
        "est_entrepreneur_spectacle": false,
        "est_ess": false,
        "est_finess": false,
        "est_organisme_formation": false,
        "est_qualiopi": false,
        "liste_id_organisme_formation": null,
        "est_rge": false,
        "est_siae": false,
        "est_societe_mission": false,
        "est_uai": false,
        "est_patrimoine_vivant": false,
        "bilan_ges_renseigne": false,
        "identifiant_association": null,
        "statut_entrepreneur_spectacle": null,
        "type_siae": null,
        "a_aide_minimis": false,
        "a_aide_ademe": false,
        "est_administration": false,
        "est_service_public": false,
        "est_l100_3": false
      }
    },
    {
      "siren": "980472864",
      "nom_complet": "RENAULT",
      "nom_raison_sociale": "RENAULT",
      "sigle": null,
      "nombre_etablissements": 1,
      "nombre_etablissements_ouverts": 1,
      "siege": {
        "activite_principale": "66.30Z",
        "activite_principale_naf25": "66.30Y",
        "activite_principale_registre_metier": null,
        "annee_tranche_effectif_salarie": null,
        "adresse": "1 FERME DE QUESNOY 80150 GAPENNES",
        "caractere_employeur": "N",
        "cedex": null,
        "code_pays_etranger": null,
        "code_postal": "80150",
        "commune": "80374",
        "complement_adresse": null,
        "coordonnees": "50.183249705,1.9587731409",
        "date_creation": "2023-10-09",
        "date_debut_activite": "2023-10-09",
        "date_fermeture": null,
        "date_mise_a_jour": null,
        "date_mise_a_jour_insee": "2025-12-06T01:06:22",
        "departement": "80",
        "distribution_speciale": null,
        "epci": "200070936",
        "est_siege": true,
        "etat_administratif": "A",
        "geo_adresse": null,
        "geo_id": null,
        "indice_repetition": null,
        "latitude": "50.183249705",
        "libelle_cedex": null,
        "libelle_commune": "GAPENNES",
        "libelle_commune_etranger": null,
        "libelle_pays_etranger": null,
        "libelle_voie": "FERME DE QUESNOY",
        "liste_enseignes": null,
        "liste_finess": null,
        "liste_id_bio": null,
        "liste_idcc": null,
        "liste_id_organisme_formation": null,
        "liste_rge": null,
        "liste_uai": null,
        "longitude": "1.9587731409",
        "nom_commercial": null,
        "numero_voie": "1",
        "dernier_numero_voie": null,
        "region": "32",
        "siret": "98047286400019",
        "statut_diffusion_etablissement": "O",
        "tranche_effectif_salarie": "NN",
        "type_voie": null
      },
      "activite_principale": "66.30Z",
      "activite_principale_naf25": "66.30Y",
      "categorie_entreprise": "PME",
      "caractere_employeur": null,
      "annee_categorie_entreprise": "2023",
      "date_creation": "2023-10-09",
      "date_fermeture": null,
      "date_mise_a_jour": "2026-05-30T12:58:18",
      "date_mise_a_jour_insee": "2025-12-06T06:26:32",
      "date_mise_a_jour_rne": "2024-05-19T17:01:20",
      "dirigeants": [
        {
          "nom": "RENAULT (GOES)",
          "prenoms": "MATHILDE OAULETTE YVONNE",
          "annee_de_naissance": "1991",
          "date_de_naissance": "1991-10",
          "qualite": "Gérant et associé indéfiniment et solidairement responsable",
          "nationalite": null,
          "type_dirigeant": "personne physique"
        },
        {
          "nom": "RENAULT",
          "prenoms": "THIBAULT PAUL LOUIS",
          "annee_de_naissance": "1991",
          "date_de_naissance": "1991-10",
          "qualite": "Gérant et associé indéfiniment et solidairement responsable",
          "nationalite": null,
          "type_dirigeant": "personne physique"
        }
      ],
      "etat_administratif": "A",
      "nature_juridique": "6599",
      "section_activite_principale": "K",
      "tranche_effectif_salarie": "NN",
      "annee_tranche_effectif_salarie": null,
      "statut_diffusion": "O",
      "matching_etablissements": [
        {
          "activite_principale": "66.30Z",
          "activite_principale_naf25": "66.30Y",
          "ancien_siege": false,
          "annee_tranche_effectif_salarie": null,
          "adresse": "1 FERME DE QUESNOY 80150 GAPENNES",
          "caractere_employeur": "N",
          "code_postal": "80150",
          "commune": "80374",
          "date_creation": "2023-10-09",
          "date_debut_activite": "2023-10-09",
          "date_fermeture": null,
          "epci": "200070936",
          "est_siege": true,
          "etat_administratif": "A",
          "geo_id": null,
          "latitude": "50.183249705",
          "libelle_commune": "GAPENNES",
          "liste_enseignes": null,
          "liste_finess": null,
          "liste_id_bio": null,
          "liste_idcc": null,
          "liste_id_organisme_formation": null,
          "liste_rge": null,
          "liste_uai": null,
          "longitude": "1.9587731409",
          "nom_commercial": null,
          "region": "32",
          "siret": "98047286400019",
          "statut_diffusion_etablissement": "O",
          "tranche_effectif_salarie": "NN"
        }
      ],
      "finances": null,
      "complements": {
        "collectivite_territoriale": null,
        "convention_collective_renseignee": false,
        "liste_idcc": null,
        "liste_finess_juridique": null,
        "egapro_renseignee": false,
        "est_achats_responsables": false,
        "est_alim_confiance": false,
        "est_association": false,
        "est_avocat": false,
        "est_bio": false,
        "est_entrepreneur_individuel": false,
        "est_entrepreneur_spectacle": false,
        "est_ess": false,
        "est_finess": false,
        "est_organisme_formation": false,
        "est_qualiopi": false,
        "liste_id_organisme_formation": null,
        "est_rge": false,
        "est_siae": false,
        "est_societe_mission": false,
        "est_uai": false,
        "est_patrimoine_vivant": false,
        "bilan_ges_renseigne": false,
        "identifiant_association": null,
        "statut_entrepreneur_spectacle": null,
        "type_siae": null,
        "a_aide_minimis": false,
        "a_aide_ademe": false,
        "est_administration": false,
        "est_service_public": false,
        "est_l100_3": false
      }
    },
    {
      "siren": "904135688",
      "nom_complet": "RENAULT",
      "nom_raison_sociale": "RENAULT",
      "sigle": null,
      "nombre_etablissements": 1,
      "nombre_etablissements_ouverts": 1,
      "siege": {
        "activite_principale": "68.20B",
        "activite_principale_naf25": "68.20H",
        "activite_principale_registre_metier": null,
        "annee_tranche_effectif_salarie": null,
        "adresse": "42 RUE GAMBETTA 52100 SAINT-DIZIER",
        "caractere_employeur": "N",
        "cedex": null,
        "code_pays_etranger": null,
        "code_postal": "52100",
        "commune": "52448",
        "complement_adresse": null,
        "coordonnees": "48.636614507,4.9508943094",
        "date_creation": "2021-10-11",
        "date_debut_activite": "2021-10-11",
        "date_fermeture": null,
        "date_mise_a_jour": null,
        "date_mise_a_jour_insee": "2025-12-06T00:28:42",
        "departement": "52",
        "distribution_speciale": null,
        "epci": "200068666",
        "est_siege": true,
        "etat_administratif": "A",
        "geo_adresse": null,
        "geo_id": null,
        "indice_repetition": null,
        "latitude": "48.636614507",
        "libelle_cedex": null,
        "libelle_commune": "SAINT-DIZIER",
        "libelle_commune_etranger": null,
        "libelle_pays_etranger": null,
        "libelle_voie": "GAMBETTA",
        "liste_enseignes": null,
        "liste_finess": null,
        "liste_id_bio": null,
        "liste_idcc": null,
        "liste_id_organisme_formation": null,
        "liste_rge": null,
        "liste_uai": null,
        "longitude": "4.9508943094",
        "nom_commercial": null,
        "numero_voie": "42",
        "dernier_numero_voie": null,
        "region": "44",
        "siret": "90413568800011",
        "statut_diffusion_etablissement": "O",
        "tranche_effectif_salarie": "NN",
        "type_voie": "RUE"
      },
      "activite_principale": "68.20B",
      "activite_principale_naf25": "68.20H",
      "categorie_entreprise": null,
      "caractere_employeur": null,
      "annee_categorie_entreprise": null,
      "date_creation": "2021-10-11",
      "date_fermeture": null,
      "date_mise_a_jour": "2026-05-30T12:33:39",
      "date_mise_a_jour_insee": "2025-12-06T10:35:52",
      "date_mise_a_jour_rne": "2024-05-19T17:01:20",
      "dirigeants": [
        {
          "nom": "MONIER",
          "prenoms": "FREDERIC GASTON ABEL",
          "annee_de_naissance": "1972",
          "date_de_naissance": "1972-07",
          "qualite": "Gérant et associé indéfiniment responsable",
          "nationalite": null,
          "type_dirigeant": "personne physique"
        },
        {
          "nom": "MONIER (RENAULT)",
          "prenoms": "KARINE MICHELLE FRANCOISE",
          "annee_de_naissance": "1972",
          "date_de_naissance": "1972-10",
          "qualite": "Gérant et associé indéfiniment responsable",
          "nationalite": null,
          "type_dirigeant": "personne physique"
        }
      ],
      "etat_administratif": "A",
      "nature_juridique": "6540",
      "section_activite_principale": "L",
      "tranche_effectif_salarie": "NN",
      "annee_tranche_effectif_salarie": null,
      "statut_diffusion": "O",
      "matching_etablissements": [
        {
          "activite_principale": "68.20B",
          "activite_principale_naf25": "68.20H",
          "ancien_siege": false,
          "annee_tranche_effectif_salarie": null,
          "adresse": "42 RUE GAMBETTA 52100 SAINT-DIZIER",
          "caractere_employeur": "N",
          "code_postal": "52100",
          "commune": "52448",
          "date_creation": "2021-10-11",
          "date_debut_activite": "2021-10-11",
          "date_fermeture": null,
          "epci": "200068666",
          "est_siege": true,
          "etat_administratif": "A",
          "geo_id": null,
          "latitude": "48.636614507",
          "libelle_commune": "SAINT-DIZIER",
          "liste_enseignes": null,
          "liste_finess": null,
          "liste_id_bio": null,
          "liste_idcc": null,
          "liste_id_organisme_formation": null,
          "liste_rge": null,
          "liste_uai": null,
          "longitude": "4.9508943094",
          "nom_commercial": null,
          "region": "44",
          "siret": "90413568800011",
          "statut_diffusion_etablissement": "O",
          "tranche_effectif_salarie": "NN"
        }
      ],
      "finances": null,
      "complements": {
        "collectivite_territoriale": null,
        "convention_collective_renseignee": false,
        "liste_idcc": null,
        "liste_finess_juridique": null,
        "egapro_renseignee": false,
        "est_achats_responsables": false,
        "est_alim_confiance": false,
        "est_association": false,
        "est_avocat": false,
        "est_bio": false,
        "est_entrepreneur_individuel": false,
        "est_entrepreneur_spectacle": false,
        "est_ess": false,
        "est_finess": false,
        "est_organisme_formation": false,
        "est_qualiopi": false,
        "liste_id_organisme_formation": null,
        "est_rge": false,
        "est_siae": false,
        "est_societe_mission": false,
        "est_uai": false,
        "est_patrimoine_vivant": false,
        "bilan_ges_renseigne": false,
        "identifiant_association": null,
        "statut_entrepreneur_spectacle": null,
        "type_siae": null,
        "a_aide_minimis": false,
        "a_aide_ademe": false,
        "est_administration": false,
        "est_service_public": false,
        "est_l100_3": false
      }
    }
  ],
  "total_results": 10000,
  "page": 1,
  "per_page": 5,
  "total_pages": 2000
}
